#VRML V2.0 utf8
#modeled using blender3d http://blender.org

# 'Cube'
Shape {
	appearance Appearance {
		material Material {
		}
	}
	geometry IndexedFaceSet {
		coord Coordinate {
			point [ 0.210000 -0.267500 0.000000 -0.210000 -0.267500 0.000000 -0.210000 0.267500 0.000000 0.210000 0.267500 0.000000 0.210000 -0.267500 0.490000 0.210000 -0.267500 0.480000 0.210000 -0.237500 0.480000 0.210000 -0.237500 0.476000 0.210000 -0.267500 0.476000 0.210000 -0.267500 0.418000 0.210000 -0.237500 0.418000 0.210000 -0.237500 0.414000 0.210000 -0.267500 0.414000 0.210000 -0.267500 0.316000 0.210000 -0.237500 0.316000 0.210000 -0.237500 0.312000 0.210000 -0.267500 0.312000 0.210000 -0.267500 0.158000 0.210000 -0.237500 0.158000 0.210000 -0.237500 0.154000 0.210000 -0.267500 0.154000 0.210000 0.267500 0.490000 -0.210000 -0.267500 0.154000 -0.210000 -0.252692 0.154000 -0.210000 -0.237500 0.154000 -0.210000 -0.237500 0.158000 -0.210000 -0.252308 0.158000 -0.210000 -0.237500 0.312000 -0.210000 0.267500 0.490000 -0.210000 -0.267500 0.490000 -0.210000 -0.267500 0.480000 -0.210000 -0.237500 0.480000 -0.210000 -0.237500 0.476000 -0.210000 -0.267500 0.476000 -0.210000 -0.267500 0.418000 -0.210000 -0.241155 0.418000 -0.210000 -0.237500 0.418000 -0.210000 -0.237500 0.414000 -0.210000 -0.241407 0.414000 -0.210000 -0.267500 0.414000 -0.210000 -0.267500 0.316000 -0.210000 -0.247584 0.316000 -0.210000 -0.244601 0.316000 -0.210000 -0.237500 0.316000 -0.210000 -0.244891 0.312000 -0.210000 -0.247836 0.312000 -0.210000 -0.267500 0.312000 -0.210000 -0.267500 0.158000 -0.210000 -0.257794 0.154000 -0.210000 -0.256341 0.154000 -0.210000 -0.256051 0.158000 -0.210000 -0.257542 0.158000 ]
		}
		colorPerVertex FALSE
		color Color {
			color [ 0.80 0.80 0.80 ]
		}
		colorIndex [ 0 0 0 0 0 0 0 0 0 0 0 0 0 0 0 0 0 0 0 0 0 0 0 0 0 0 0 0 0 0 0 0 0 0 0 0 0 0 0 0 0 0 0 0 0 0 0 0 0 0 0 0 0 0 0 0 0 0 0 0 0 0 0 0 0 0 0 0 0 0 0 0 0 0 0 0 0 0 0 0 0 0 0 0 0 0 0 0 0 0 0 0 0 0 0 0 0 0 0 0 ]
		coordIndex [ 1 2 3 -1 14 15 16 -1 20 22 1 -1 42 29 43 -1 28 21 3 -1 4 21 28 -1 4 29 30 -1 5 30 31 -1 32 7 6 -1 33 8 7 -1 8 33 34 -1 9 34 35 -1 37 11 10 -1 38 39 12 -1 13 12 39 -1 13 40 41 -1 27 15 14 -1 45 46 16 -1 16 46 47 -1 48 1 22 -1 23 1 49 -1 27 26 50 -1 32 35 34 -1 37 42 41 -1 38 41 40 -1 44 50 51 -1 45 51 47 -1 49 1 48 -1 24 19 18 -1 17 47 51 -1 49 20 23 -1 0 1 3 -1 20 0 3 -1 4 5 6 -1 18 19 20 -1 7 8 6 -1 17 18 20 -1 24 25 26 -1 20 3 17 -1 8 9 10 -1 21 8 12 -1 11 12 10 -1 21 13 16 -1 3 16 17 -1 0 20 1 -1 13 14 16 -1 3 21 16 -1 21 4 8 -1 12 8 10 -1 13 21 12 -1 8 4 6 -1 1 23 24 -1 32 31 30 -1 2 1 24 -1 35 32 30 -1 2 24 26 -1 36 35 30 -1 2 26 27 -1 36 30 29 -1 28 2 27 -1 37 36 29 -1 28 27 43 -1 42 37 29 -1 2 28 3 -1 29 4 28 -1 29 28 43 -1 5 4 30 -1 6 5 31 -1 31 32 6 -1 32 33 7 -1 9 8 34 -1 35 36 10 -1 36 37 10 -1 10 9 35 -1 37 38 11 -1 40 13 39 -1 42 43 14 -1 38 12 11 -1 43 27 14 -1 41 42 14 -1 14 13 41 -1 27 44 15 -1 17 16 47 -1 16 15 45 -1 44 27 50 -1 15 44 45 -1 33 32 34 -1 38 37 41 -1 39 38 40 -1 45 44 51 -1 46 45 47 -1 25 24 18 -1 26 25 18 -1 26 17 50 -1 24 23 19 -1 26 18 17 -1 48 22 20 -1 17 51 50 -1 49 48 20 -1 23 20 19 -1 ]
	}
}
